%
M48
M72
T01C0.0236
T02C0.0315
T03C0.0394
T04C0.0400
%
T01
X1361Y6012
X3920Y4437
X4117Y8768
X13369Y10638
X11794Y10638
X3330Y15067
X2542Y5028
X13960Y7587
T02
X8755Y15650
X7755Y15650
X6755Y15650
X5755Y15650
X9755Y15650
X10755Y15650
X11755Y15650
X12755Y15650
X5755Y4650
X6755Y4650
X7755Y4650
X8755Y4650
X9755Y4650
X10755Y4650
X11755Y4650
X12755Y4650
T03
X4367Y6050
X5567Y6050
X5567Y14250
X4367Y14250
T04
X18637Y12838
X16077Y12838
X18637Y14618
X16077Y14618
X18637Y9252
X16077Y9252
X18637Y11032
X16077Y11032
X18637Y5665
X16077Y5665
X18637Y7445
X16077Y7445
X9629Y7685
X9629Y8685
X9629Y9685
X9629Y10685
X9629Y11685
X9629Y12685
M30
